{
  "data": [
    {
      "id": "9993oND6G9RavIPLdXymybaSy3AXLmBKKHqjNaVW",
      "description": "Uber 072515 SF**POOL**",
      "type": "SPECIAL",
      "status": "POSTED",
      "dateTime": "2018-09-06T19:59:00",
      "amount": -6.33,
      "currency": "USD",
			"from": "ins_5"
    },
    {
      "id": "999xyJZpgQjoXflNVJ3j3WMTpMK9bgxjjcnzWEKg",
      "description": "Uber 063015 SF**POOL**",
      "type": "SPECIAL",
      "status": "POSTED",
      "dateTime": "2018-08-24T18:48:22",
      "amount": -5.4,
      "currency": "USD",
      "from": "Z6JG98m4LjuWm4v313GaF1RmLodGvLIg6vA6k"
    },
    {
      "id": "999dBrAqDmLKJud1onD8DP5Sp9r8E5xeecZbA3nr",
      "description": "United Airlines",
      "type": "SPECIAL",
      "status": "POSTED",
      "dateTime": "2018-08-22T18:28:22",
      "amount": 500,
      "currency": "USD",
      "from": "Z6JG98m4LjuWm4v313GaF1RmLodGvLIg6vA6k"
    },
    {
      "id": "999aKlLwBmZA3HZ1AWyeyDEhaoleZjyEET7EG9KG",
      "description": "McDonald's",
      "type": "PLACE",
      "status": "POSTED",
      "dateTime": "2018-08-21T17:18:22",
      "amount": -12,
      "currency": "USD",
      "from": "Z6JG98m4LjuWm4v313GaF1RmLodGvLIg6vA6k"
    },
    {
      "id": "9994DPgXaJR4Vck4pZMxMA6fymkZDda33HdvExRN",
      "description": "Starbucks",
      "type": "PLACE",
      "status": "POSTED",
      "dateTime": "2018-08-21T16:43:22",
      "amount": -4.33,
      "currency": "USD",
      "from": "Z6JG98m4LjuWm4v313GaF1RmLodGvLIg6vA6k"
    },
    {
      "id": "999N693p7rEdnuMXWxNKNRLfg7o8QP9xxIWGN1Al",
      "description": "SparkFun",
      "type": "PLACE",
      "status": "POSTED",
      "dateTime": "2018-08-20T14:08:22",
      "amount": -89.4,
      "currency": "USD",
      "from": "Z6JG98m4LjuWm4v313GaF1RmLodGvLIg6vA6k"
    },
    {
      "id": "999Z6JG98m4LjuWm4v313GaF1RQ94DrPzfg6vAn8",
      "description": "Uber 072515 SF**POOL**",
      "type": "SPECIAL",
      "status": "POSTED",
      "dateTime": "2018-08-07T18:38:00",
      "amount": -6.33,
      "currency": "USD",
      "from": "Z6JG98m4LjuWm4v313GaF1RmLodGvLIg6vA6k"
    },
    {
      "id": "999Q6ka8X3qNWuZoqvNdNmEh49LNqkvrxcp5n4rr",
      "description": "Uber 063015 SF**POOL**",
      "type": "SPECIAL",
      "status": "POSTED",
      "dateTime": "2018-07-25T17:57:22",
      "amount": -5.4,
      "currency": "USD",
      "from": "Z6JG98m4LjuWm4v313GaF1RmLodGvLIg6vA6k"
    },
    {
      "id": "999e3z8KPmprJHQz5J1y1pMi6dely17k5tL4XRyK",
      "description": "United Airlines",
      "type": "SPECIAL",
      "status": "POSTED",
      "dateTime": "2018-07-23T17:37:22",
      "amount": 500,
      "currency": "USD",
      "from": "Z6JG98m4LjuWm4v313GaF1RmLodGvLIg6vA6k"
    },
    {
      "id": "999jNaKxJ8WdgfkLyeV5Voxf8y1jlxZNAt1Vjzoe",
      "description": "McDonald's",
      "type": "PLACE",
      "status": "POSTED",
      "dateTime": "2018-07-22T12:27:22",
      "amount": -12,
      "currency": "USD",
      "from": "Z6JG98m4LjuWm4v313GaF1RmLodGvLIg6vA6k"
    },
    {
      "id": "9997meWwa9KjVUbVXgGZGyPhk9EXgPm4BugoaA4a",
      "description": "Starbucks",
      "type": "PLACE",
      "status": "POSTED",
      "dateTime": "2018-07-22T11:52:22",
      "amount": -4.33,
      "currency": "USD",
      "from": "Z6JG98m4LjuWm4v313GaF1RmLodGvLIg6vA6k"
    },
    {
      "id": "999P6wdgQBl4EuZzlaNJNQdhrlMXAoRKpc7PnBEa",
      "description": "SparkFun",
      "type": "PLACE",
      "status": "POSTED",
      "dateTime": "2018-07-21T17:17:22",
      "amount": -89.4,
      "currency": "USD",
      "from": "Z6JG98m4LjuWm4v313GaF1RmLodGvLIg6vA6k"
    },
    {
      "id": "999N693p7rEdnuMXWxNKNRLfg7WX8AEnptW4zBLZ",
      "description": "Uber 072515 SF**POOL**",
      "type": "SPECIAL",
      "status": "POSTED",
      "dateTime": "2018-07-08T17:37:00",
      "amount": -6.33,
      "currency": "USD",
      "from": "Z6JG98m4LjuWm4v313GaF1RmLodGvLIg6vA6k"
    },
    {
      "id": "9994DPgXaJR4Vck4pZMxMA6fymoXZNBKvSdQKN8r",
      "description": "Uber 063015 SF**POOL**",
      "type": "SPECIAL",
      "status": "POSTED",
      "dateTime": "2018-06-25T16:56:22",
      "amount": -5.4,
      "currency": "USD",
      "from": "Z6JG98m4LjuWm4v313GaF1RmLodGvLIg6vA6k"
    },
    {
      "id": "999aKlLwBmZA3HZ1AWyeyDEhaogkeX1PDs7BvlpE",
      "description": "United Airlines",
      "type": "SPECIAL",
      "status": "POSTED",
      "dateTime": "2018-06-23T16:36:22",
      "amount": 500,
      "currency": "USD",
      "from": "Z6JG98m4LjuWm4v313GaF1RmLodGvLIg6vA6k"
    },
    {
      "id": "999xyJZpgQjoXflNVJ3j3WMTpMvZ9aJy6Fn3Zpmo",
      "description": "McDonald's",
      "type": "PLACE",
      "status": "POSTED",
      "dateTime": "2018-06-22T16:26:22",
      "amount": -12,
      "currency": "USD",
      "from": "Z6JG98m4LjuWm4v313GaF1RmLodGvLIg6vA6k"
    },
    {
      "id": "999dBrAqDmLKJud1onD8DP5Sp97B8VDqoFZjq5ok",
      "description": "Starbucks",
      "type": "PLACE",
      "status": "POSTED",
      "dateTime": "2018-06-22T16:26:22",
      "amount": -4.33,
      "currency": "USD",
      "from": "Z6JG98m4LjuWm4v313GaF1RmLodGvLIg6vA6k"
    },
    {
      "id": "9993oND6G9RavIPLdXymybaSy3RkXZz6VSqDLKG1",
      "description": "SparkFun",
      "type": "PLACE",
      "status": "POSTED",
      "dateTime": "2018-06-21T16:16:22",
      "amount": -89.4,
      "currency": "USD",
      "from": "Z6JG98m4LjuWm4v313GaF1RmLodGvLIg6vA6k"
    }
  ]
}
